\relax 
\@writefile{toc}{\contentsline {section}{\numberline {1}Introduction}{4}\protected@file@percent }
\@writefile{toc}{\contentsline {subsection}{\numberline {1.1}Changes from previous versions}{4}\protected@file@percent }
\@writefile{toc}{\contentsline {section}{\numberline {2}Description of the molecular structure and the force field}{6}\protected@file@percent }
\@writefile{toc}{\contentsline {subsection}{\numberline {2.1}The force field}{6}\protected@file@percent }
\newlabel{FF}{{1}{6}}
\@writefile{toc}{\contentsline {subsection}{\numberline {2.2}Molecular geometry and non-bonded interaction parameters}{7}\protected@file@percent }
\@writefile{toc}{\contentsline {subsection}{\numberline {2.3}Bonds}{7}\protected@file@percent }
\newlabel{harm}{{4}{7}}
\newlabel{morse}{{5}{8}}
\@writefile{toc}{\contentsline {subsection}{\numberline {2.4}Covalent angles}{8}\protected@file@percent }
\newlabel{harm-ang}{{6}{8}}
\@writefile{toc}{\contentsline {subsection}{\numberline {2.5}Dihedral angles}{9}\protected@file@percent }
\newlabel{tors-0}{{7}{9}}
\@writefile{toc}{\contentsline {subsection}{\numberline {2.6}Optional features of the force field}{9}\protected@file@percent }
\newlabel{tors1}{{8}{9}}
\newlabel{tors5}{{9}{9}}
\newlabel{harm-ang}{{10}{10}}
\@writefile{toc}{\contentsline {section}{\numberline {3}The main input file}{11}\protected@file@percent }
\@writefile{toc}{\contentsline {subsection}{\numberline {3.1}General notes}{11}\protected@file@percent }
\@writefile{toc}{\contentsline {subsection}{\numberline {3.2}Basic setup}{11}\protected@file@percent }
\@writefile{toc}{\contentsline {subsection}{\numberline {3.3}Restart control}{12}\protected@file@percent }
\@writefile{toc}{\contentsline {subsection}{\numberline {3.4}System}{13}\protected@file@percent }
\@writefile{toc}{\contentsline {subsection}{\numberline {3.5}Ensemble}{15}\protected@file@percent }
\@writefile{toc}{\contentsline {subsection}{\numberline {3.6}Molecular Dynamics}{17}\protected@file@percent }
\@writefile{toc}{\contentsline {subsection}{\numberline {3.7}Startup}{18}\protected@file@percent }
\@writefile{toc}{\contentsline {subsection}{\numberline {3.8}Expanded Ensemble mode}{20}\protected@file@percent }
\newlabel{softp}{{12}{20}}
\@writefile{toc}{\contentsline {subsection}{\numberline {3.9}Path Integral mode}{23}\protected@file@percent }
\@writefile{toc}{\contentsline {subsection}{\numberline {3.10}Properties}{23}\protected@file@percent }
\@writefile{toc}{\contentsline {section}{\numberline {4}Compilation}{25}\protected@file@percent }
\@writefile{toc}{\contentsline {subsection}{\numberline {4.1}Sequential execution}{25}\protected@file@percent }
\@writefile{toc}{\contentsline {subsection}{\numberline {4.2}Parallel execution}{25}\protected@file@percent }
\@writefile{toc}{\contentsline {subsection}{\numberline {4.3}Other makefiles}{26}\protected@file@percent }
\@writefile{toc}{\contentsline {section}{\numberline {5}Execution}{26}\protected@file@percent }
\@writefile{toc}{\contentsline {subsection}{\numberline {5.1}Files used by the program}{26}\protected@file@percent }
\@writefile{lot}{\contentsline {table}{\numberline {1}{\ignorespaces Files used by the program. ``$<$fname$>$'' is the same for all files in the simulation}}{26}\protected@file@percent }
\@writefile{toc}{\contentsline {subsection}{\numberline {5.2}Memory considerations}{26}\protected@file@percent }
\@writefile{toc}{\contentsline {subsection}{\numberline {5.3}Program structure}{27}\protected@file@percent }
\@writefile{toc}{\contentsline {section}{\numberline {6}{\em  Makemol} utility}{28}\protected@file@percent }
\@writefile{toc}{\contentsline {subsection}{\numberline {6.1}General organization}{28}\protected@file@percent }
\@writefile{toc}{\contentsline {subsection}{\numberline {6.2}The force field (.ff) file}{29}\protected@file@percent }
\@writefile{toc}{\contentsline {subsection}{\numberline {6.3}char2mdx}{30}\protected@file@percent }
\@writefile{toc}{\contentsline {subsection}{\numberline {6.4}The molecular structure (.smol) file}{31}\protected@file@percent }
\@writefile{toc}{\contentsline {section}{\numberline {7}{\em  Tranal} utility}{31}\protected@file@percent }
\@writefile{toc}{\contentsline {subsection}{\numberline {7.1}General organization}{31}\protected@file@percent }
\@writefile{toc}{\contentsline {subsection}{\numberline {7.2}tranal\_base: reading trajectories}{33}\protected@file@percent }
\@writefile{toc}{\contentsline {subsection}{\numberline {7.3}Computation of the electron density and electrostatic potential in bilayers: bileldens.f}{35}\protected@file@percent }
\@writefile{toc}{\contentsline {subsection}{\numberline {7.4}Dielectric constant: diel.f}{36}\protected@file@percent }
\newlabel{diel}{{13}{36}}
\@writefile{toc}{\contentsline {subsection}{\numberline {7.5}Diffusion: diffus.f}{37}\protected@file@percent }
\newlabel{diffusion}{{14}{38}}
\@writefile{toc}{\contentsline {subsection}{\numberline {7.6}Dryrun: dryrun.f}{38}\protected@file@percent }
\@writefile{toc}{\contentsline {subsection}{\numberline {7.7}Hydrogen bonds: h-bonds.f}{38}\protected@file@percent }
\@writefile{toc}{\contentsline {subsection}{\numberline {7.8}Lateral diffusion: latdiff.f}{39}\protected@file@percent }
\@writefile{toc}{\contentsline {subsection}{\numberline {7.9}Order parameters: order.f}{40}\protected@file@percent }
\@writefile{toc}{\contentsline {subsection}{\numberline {7.10}Radial distribution functions: rdf.f}{41}\protected@file@percent }
\@writefile{toc}{\contentsline {subsection}{\numberline {7.11}Gyration radius and end-to-end distance: rgyr.f}{42}\protected@file@percent }
\@writefile{toc}{\contentsline {subsection}{\numberline {7.12}Spatial distribution functions: sdf.f}{43}\protected@file@percent }
\@writefile{toc}{\contentsline {subsection}{\numberline {7.13}Distribution of torsion angles: torsion.f}{45}\protected@file@percent }
\@writefile{toc}{\contentsline {subsection}{\numberline {7.14}Ramachandran plot for a pair of torsion angles: torsion2.f}{46}\protected@file@percent }
\@writefile{toc}{\contentsline {subsection}{\numberline {7.15}Residence time calculation: restime.f}{46}\protected@file@percent }
\@writefile{toc}{\contentsline {subsection}{\numberline {7.16}Time correlation functions: trtcf.f}{48}\protected@file@percent }
\newlabel{TCF}{{15}{48}}
\newlabel{TCF-L2}{{16}{48}}
